{
  "points": [
    {
      "lat": "32.90793657",
      "long": "35.28805976",
      "time": "2018-11-24T15:34:15.000Z"
    },
    {
      "lat": "32.90800727",
      "long": "35.29180629",
      "time": "2018-11-24T15:34:36.000Z"
    },
    {
      "lat": "32.90815913",
      "long": "35.29327473",
      "time": "2018-11-24T15:34:56.000Z"
    },
    {
      "lat": "32.90600262",
      "long": "35.29441044",
      "time": "2018-11-24T15:35:16.000Z"
    },
    {
      "lat": "32.90533256",
      "long": "35.29627604",
      "time": "2018-11-24T15:35:37.000Z"
    },
    {
      "lat": "32.90453866",
      "long": "35.29754161",
      "time": "2018-11-24T15:35:57.000Z"
    },
    {
      "lat": "32.90371942",
      "long": "35.29945677",
      "time": "2018-11-24T15:36:18.000Z"
    },
    {
      "lat": "32.90369176",
      "long": "35.30028284",
      "time": "2018-11-24T15:36:38.000Z"
    },
    {
      "lat": "32.90373854",
      "long": "35.30051305",
      "time": "2018-11-24T15:36:59.000Z"
    },
    {
      "lat": "32.9035544",
      "long": "35.3002612",
      "time": "2018-11-24T15:38:42.127Z"
    },
    {
      "lat": "32.9035285",
      "long": "35.3002193",
      "time": "2018-11-24T15:39:04.526Z"
    },
    {
      "lat": "32.90375153",
      "long": "35.3005061",
      "time": "2018-11-24T15:39:57.000Z"
    },
    {
      "lat": "32.9035702",
      "long": "35.3002062",
      "time": "2018-11-24T15:40:24.659Z"
    },
    {
      "lat": "32.903596",
      "long": "35.300286",
      "time": "2018-11-24T15:40:46.254Z"
    },
    {
      "lat": "32.90374899",
      "long": "35.30051336",
      "time": "2018-11-24T15:41:06.000Z"
    },
    {
      "lat": "32.9035124",
      "long": "35.3003392",
      "time": "2018-11-24T15:42:52.290Z"
    },
    {
      "lat": "32.9034233",
      "long": "35.300384",
      "time": "2018-11-24T15:43:12.826Z"
    },
    {
      "lat": "32.90374775",
      "long": "35.30050943",
      "time": "2018-11-24T15:44:05.000Z"
    },
    {
      "lat": "32.9035586",
      "long": "35.3002463",
      "time": "2018-11-24T15:46:18.152Z"
    },
    {
      "lat": "32.9036785",
      "long": "35.299812",
      "time": "2018-11-24T15:46:39.244Z"
    },
    {
      "lat": "32.90378195",
      "long": "35.30181631",
      "time": "2018-11-24T15:46:59.000Z"
    },
    {
      "lat": "32.90490391",
      "long": "35.30193857",
      "time": "2018-11-24T15:47:19.000Z"
    },
    {
      "lat": "32.90635983",
      "long": "35.30222674",
      "time": "2018-11-24T15:47:40.000Z"
    },
    {
      "lat": "32.90812259",
      "long": "35.30246771",
      "time": "2018-11-24T15:48:01.000Z"
    },
    {
      "lat": "32.90908638",
      "long": "35.30263019",
      "time": "2018-11-24T15:48:22.000Z"
    },
    {
      "lat": "32.91102653",
      "long": "35.30368429",
      "time": "2018-11-24T15:48:43.000Z"
    },
    {
      "lat": "32.91166328",
      "long": "35.30550158",
      "time": "2018-11-24T15:49:03.000Z"
    },
    {
      "lat": "32.91110527",
      "long": "35.3078903",
      "time": "2018-11-24T15:49:24.000Z"
    },
    {
      "lat": "32.91295359",
      "long": "35.30919731",
      "time": "2018-11-24T15:49:45.000Z"
    },
    {
      "lat": "32.91502222",
      "long": "35.30939969",
      "time": "2018-11-24T15:50:05.000Z"
    },
    {
      "lat": "32.91674271",
      "long": "35.31126179",
      "time": "2018-11-24T15:50:26.000Z"
    },
    {
      "lat": "32.91819863",
      "long": "35.31370065",
      "time": "2018-11-24T15:50:47.000Z"
    },
    {
      "lat": "32.91923301",
      "long": "35.31579611",
      "time": "2018-11-24T15:51:08.000Z"
    },
    {
      "lat": "32.91949735",
      "long": "35.31764532",
      "time": "2018-11-24T15:51:28.000Z"
    },
    {
      "lat": "32.9212497",
      "long": "35.31797963",
      "time": "2018-11-24T15:51:49.000Z"
    },
    {
      "lat": "32.92311973",
      "long": "35.31765213",
      "time": "2018-11-24T15:52:09.000Z"
    },
    {
      "lat": "32.92386444",
      "long": "35.3182212",
      "time": "2018-11-24T15:52:30.000Z"
    },
    {
      "lat": "32.9247822",
      "long": "35.32170408",
      "time": "2018-11-24T15:52:51.000Z"
    },
    {
      "lat": "32.92542568",
      "long": "35.32413424",
      "time": "2018-11-24T15:53:12.000Z"
    },
    {
      "lat": "32.92571373",
      "long": "35.32540136",
      "time": "2018-11-24T15:53:33.000Z"
    },
    {
      "lat": "32.92607892",
      "long": "35.32599533",
      "time": "2018-11-24T15:53:54.000Z"
    },
    {
      "lat": "32.92704922",
      "long": "35.32658833",
      "time": "2018-11-24T15:54:14.000Z"
    },
    {
      "lat": "32.92735265",
      "long": "35.32614488",
      "time": "2018-11-24T15:54:35.000Z"
    },
    {
      "lat": "32.92728173",
      "long": "35.32580125",
      "time": "2018-11-24T15:54:56.000Z"
    },
    {
      "lat": "32.92712382",
      "long": "35.32555536",
      "time": "2018-11-24T15:55:17.000Z"
    },
    {
      "lat": "32.92705408",
      "long": "35.32549243",
      "time": "2018-11-24T15:55:38.000Z"
    },
    {
      "lat": "32.92710974",
      "long": "35.32557074",
      "time": "2018-11-24T15:55:59.000Z"
    },
    {
      "lat": "32.92722653",
      "long": "35.32571612",
      "time": "2018-11-24T15:56:19.000Z"
    },
    {
      "lat": "32.9270297",
      "long": "35.3258559",
      "time": "2018-11-24T15:56:41.326Z"
    }
  ]
}